﻿<?xml version="1.0" encoding="utf-8"?>
<svg version="1.1" xmlns:xlink="http://www.w3.org/1999/xlink" width="10px" height="21px" preserveAspectRatio="xMidYMin meet" viewBox="350 305  8 21" xmlns="http://www.w3.org/2000/svg">
  <path d="M 355 295  L 355 309.5  A 0.5 0.5 0 0 1 354.5 310 A 0.5 0.5 0 0 0 354 310.5 L 354 326  " stroke-width="2" stroke-dasharray="6,2" stroke="#0099cc" fill="none" />
</svg>