﻿<?xml version="1.0" encoding="utf-8"?>
<svg version="1.1" xmlns:xlink="http://www.w3.org/1999/xlink" width="10px" height="64px" preserveAspectRatio="xMidYMin meet" viewBox="350 378  8 64" xmlns="http://www.w3.org/2000/svg">
  <path d="M 354 378  L 354 437  " stroke-width="2" stroke-dasharray="6,2" stroke="#0099cc" fill="none" />
</svg>