﻿<?xml version="1.0" encoding="utf-8"?>
<svg version="1.1" xmlns:xlink="http://www.w3.org/1999/xlink" width="27px" height="10px" preserveAspectRatio="xMinYMid meet" viewBox="153 306  27 8" xmlns="http://www.w3.org/2000/svg">
  <path d="M 158 297  L 158 305  A 5 5 0 0 0 163 310 L 170 310  A 5 5 0 0 1 175 315 L 175 339  " stroke-width="2" stroke-dasharray="6,2" stroke="#0099cc" fill="none" />
</svg>