﻿<?xml version="1.0" encoding="utf-8"?>
<svg version="1.1" xmlns:xlink="http://www.w3.org/1999/xlink" width="10px" height="18px" preserveAspectRatio="xMidYMin meet" viewBox="767 297  8 18" xmlns="http://www.w3.org/2000/svg">
  <path d="M 771 297  L 771 305  A 5 5 0 0 1 766 310 L 642 310  A 5 5 0 0 0 637 315 L 637 339  " stroke-width="2" stroke-dasharray="6,2" stroke="#0099cc" fill="none" />
</svg>