﻿<?xml version="1.0" encoding="utf-8"?>
<svg version="1.1" xmlns:xlink="http://www.w3.org/1999/xlink" width="17px" height="10px" preserveAspectRatio="xMinYMid meet" viewBox="759 314  17 8" xmlns="http://www.w3.org/2000/svg">
  <path d="M 771 297  L 771 314.5  A 3.5 3.5 0 0 1 767.5 318 A 3.5 3.5 0 0 0 764 321.5 L 764 339  " stroke-width="2" stroke-dasharray="6,2" stroke="#0099cc" fill="none" />
</svg>