﻿<?xml version="1.0" encoding="utf-8"?>
<svg version="1.1" xmlns:xlink="http://www.w3.org/1999/xlink" width="60px" height="10px" preserveAspectRatio="xMinYMid meet" viewBox="766 307  60 8" xmlns="http://www.w3.org/2000/svg">
  <path d="M 771 297  L 771 306  A 5 5 0 0 0 776 311 L 816 311  A 5 5 0 0 1 821 316 L 821 339  " stroke-width="2" stroke-dasharray="6,2" stroke="#0099cc" fill="none" />
</svg>