﻿<?xml version="1.0" encoding="utf-8"?>
<svg version="1.1" xmlns:xlink="http://www.w3.org/1999/xlink" width="10px" height="20px" preserveAspectRatio="xMidYMin meet" viewBox="725 405  8 20" xmlns="http://www.w3.org/2000/svg">
  <path d="M 821 391  L 821 405  A 5 5 0 0 1 816 410 L 734 410  A 5 5 0 0 0 729 415 L 729 425  " stroke-width="2" stroke-dasharray="6,2" stroke="#0099cc" fill="none" />
</svg>