﻿<?xml version="1.0" encoding="utf-8"?>
<svg version="1.1" xmlns:xlink="http://www.w3.org/1999/xlink" width="103px" height="10px" preserveAspectRatio="xMinYMid meet" viewBox="816 406  103 8" xmlns="http://www.w3.org/2000/svg">
  <path d="M 821 391  L 821 405  A 5 5 0 0 0 826 410 L 909 410  A 5 5 0 0 1 914 415 L 914 425  " stroke-width="2" stroke-dasharray="6,2" stroke="#0099cc" fill="none" />
</svg>