﻿<?xml version="1.0" encoding="utf-8"?>
<svg version="1.1" xmlns:xlink="http://www.w3.org/1999/xlink" width="122px" height="10px" preserveAspectRatio="xMinYMid meet" viewBox="1123 306  122 8" xmlns="http://www.w3.org/2000/svg">
  <path d="M 1128 298  L 1128 305  A 5 5 0 0 0 1133 310 L 1235 310  A 5 5 0 0 1 1240 315 L 1240 339  " stroke-width="2" stroke-dasharray="6,2" stroke="#0099cc" fill="none" />
</svg>