﻿<?xml version="1.0" encoding="utf-8"?>
<svg version="1.1" xmlns:xlink="http://www.w3.org/1999/xlink" width="50px" height="50px" xmlns="http://www.w3.org/2000/svg">
  <defs>
    <mask fill="white" id="clip45">
      <path d="M 0 25  C 0 11  11 0  25 0  C 39 0  50 11  50 25  C 50 39  39 50  25 50  C 11.5748843354445 50  0.908448220991204 39.8848416496241  0.0550901407493711 26.7089234329811  C 0.0185480203599582 26.1447101198816  0 25.5748843354444  0 25  Z " fill-rule="evenodd" />
    </mask>
  </defs>
  <g transform="matrix(1 0 0 1 -1557 -942 )">
    <path d="M 0 25  C 0 11  11 0  25 0  C 39 0  50 11  50 25  C 50 39  39 50  25 50  C 11.5748843354445 50  0.908448220991204 39.8848416496241  0.0550901407493711 26.7089234329811  C 0.0185480203599582 26.1447101198816  0 25.5748843354444  0 25  Z " fill-rule="nonzero" fill="#277ac6" stroke="none" fill-opacity="0.619607843137255" transform="matrix(1 0 0 1 1557 942 )" />
    <path d="M 0 25  C 0 11  11 0  25 0  C 39 0  50 11  50 25  C 50 39  39 50  25 50  C 11.5748843354445 50  0.908448220991204 39.8848416496241  0.0550901407493711 26.7089234329811  C 0.0185480203599582 26.1447101198816  0 25.5748843354444  0 25  Z " stroke-width="2" stroke="#797979" fill="none" transform="matrix(1 0 0 1 1557 942 )" mask="url(#clip45)" />
  </g>
</svg>