﻿<?xml version="1.0" encoding="utf-8"?>
<svg version="1.1" xmlns:xlink="http://www.w3.org/1999/xlink" width="12px" height="12px" viewBox="117 29.5  12 12" xmlns="http://www.w3.org/2000/svg">
  <path d="M 117.5 30  L 128.5 30  L 128.5 41  L 117.5 41  L 117.5 30  Z " fill-rule="nonzero" fill="#f0f0f0" stroke="none" />
  <path d="M 117.5 30  L 128.5 30  L 128.5 41  L 117.5 41  L 117.5 30  Z " stroke-width="1" stroke="#797979" fill="none" />
  <path d="M 119.571428571429 35.5  L 122.142857142857 38.0714285714286  " stroke-width="2.57142857142857" stroke="#797979" fill="none" />
  <path d="M 122.142857142857 38.0714285714286  L 126.428571428571 32.0714285714286  " stroke-width="2.57142857142857" stroke="#797979" fill="none" />
</svg>