﻿<?xml version="1.0" encoding="utf-8"?>
<svg version="1.1" xmlns:xlink="http://www.w3.org/1999/xlink" width="88px" height="170px" xmlns="http://www.w3.org/2000/svg">
  <defs>
    <mask fill="white" id="clip48">
      <path d="M 122.5 155  L 201.5 155  L 201.5 213  L 122.5 213  Z M 117 98  L 205 98  L 205 268  L 117 268  Z " fill-rule="evenodd" />
    </mask>
  </defs>
  <g transform="matrix(1 0 0 1 -117 -98 )">
    <path d="M 117.5 98.5  L 204.5 98.5  L 204.5 267.5  L 117.5 267.5  L 117.5 98.5  Z " fill-rule="nonzero" fill="#f2f2f2" stroke="none" />
    <path d="M 117.5 98.5  L 204.5 98.5  L 204.5 267.5  L 117.5 267.5  L 117.5 98.5  Z " stroke-width="1" stroke="#797979" fill="none" />
    <path d="M 117.444035291176 98.8577954488634  L 204.555964708824 267.142204551137  M 204.555964708824 98.8577954488634  L 117.444035291176 267.142204551137  " stroke-width="1" stroke="#797979" fill="none" mask="url(#clip48)" />
  </g>
</svg>