﻿<?xml version="1.0" encoding="utf-8"?>
<svg version="1.1" xmlns:xlink="http://www.w3.org/1999/xlink" width="136px" height="136px" xmlns="http://www.w3.org/2000/svg">
  <g transform="matrix(1 0 0 1 -53 -19 )">
    <path d="M 121 19  C 159.08 19  189 48.92  189 87  C 189 125.08  159.08 155  121 155  C 82.92 155  53 125.08  53 87  C 53 48.92  82.92 19  121 19  Z " fill-rule="nonzero" fill="#ffffff" stroke="none" />
    <path d="M 121 19.5  C 158.8 19.5  188.5 49.2  188.5 87  C 188.5 124.8  158.8 154.5  121 154.5  C 83.2 154.5  53.5 124.8  53.5 87  C 53.5 49.2  83.2 19.5  121 19.5  Z " stroke-width="1" stroke="#797979" fill="none" />
  </g>
</svg>