﻿<?xml version="1.0" encoding="utf-8"?>
<svg version="1.1" xmlns:xlink="http://www.w3.org/1999/xlink" width="121px" height="48px" xmlns="http://www.w3.org/2000/svg">
  <defs>
    <mask fill="white" id="clip53">
      <path d="M 167.7109375 32  L 193.2890625 32  L 193.2890625 51  L 167.7109375 51  Z M 119 17  L 240 17  L 240 65  L 119 65  Z " fill-rule="evenodd" />
    </mask>
  </defs>
  <g transform="matrix(1 0 0 1 -119 -17 )">
    <path d="M 119.5 17.5  L 239.5 17.5  L 239.5 64.5  L 119.5 64.5  L 119.5 17.5  Z " fill-rule="nonzero" fill="#f2f2f2" stroke="none" />
    <path d="M 119.5 17.5  L 239.5 17.5  L 239.5 64.5  L 119.5 64.5  L 119.5 17.5  Z " stroke-width="1" stroke="#797979" fill="none" />
    <path d="M 120.171598268064 17.4647662550999  L 238.828401731936 64.5352337449001  M 238.828401731936 17.4647662550999  L 120.171598268064 64.5352337449001  " stroke-width="1" stroke="#797979" fill="none" mask="url(#clip53)" />
  </g>
</svg>