﻿<?xml version="1.0" encoding="utf-8"?>
<svg version="1.1" xmlns:xlink="http://www.w3.org/1999/xlink" width="281px" height="101px" xmlns="http://www.w3.org/2000/svg">
  <defs>
    <mask fill="white" id="clip41">
      <path d="M 289.8671875 97  L 413.1328125 97  L 413.1328125 137  L 289.8671875 137  Z M 210 66  L 491 66  L 491 167  L 210 167  Z " fill-rule="evenodd" />
    </mask>
  </defs>
  <g transform="matrix(1 0 0 1 -210 -66 )">
    <path d="M 210.5 66.5  L 490.5 66.5  L 490.5 166.5  L 210.5 166.5  L 210.5 66.5  Z " fill-rule="nonzero" fill="#f2f2f2" stroke="none" />
    <path d="M 210.5 66.5  L 490.5 66.5  L 490.5 166.5  L 210.5 166.5  L 210.5 66.5  Z " stroke-width="1" stroke="#797979" fill="none" />
    <path d="M 211.309095619296 66.4705290304231  L 489.690904380704 166.529470969577  M 489.690904380704 66.4705290304231  L 211.309095619296 166.529470969577  " stroke-width="1" stroke="#797979" fill="none" mask="url(#clip41)" />
  </g>
</svg>