﻿<?xml version="1.0" encoding="utf-8"?>
<svg version="1.1" xmlns:xlink="http://www.w3.org/1999/xlink" width="350px" height="350px" xmlns="http://www.w3.org/2000/svg">
  <g transform="matrix(1 0 0 1 -310 -236 )">
    <path d="M 485 236  C 583 236  660 313  660 411  C 660 509  583 586  485 586  C 387 586  310 509  310 411  C 310 313  387 236  485 236  Z " fill-rule="nonzero" fill="#000000" stroke="none" fill-opacity="0.52156862745098" />
    <path d="M 485 236.5  C 582.72 236.5  659.5 313.28  659.5 411  C 659.5 508.72  582.72 585.5  485 585.5  C 387.28 585.5  310.5 508.72  310.5 411  C 310.5 313.28  387.28 236.5  485 236.5  Z " stroke-width="1" stroke="#797979" fill="none" />
  </g>
</svg>