﻿<?xml version="1.0" encoding="utf-8"?>
<svg version="1.1" xmlns:xlink="http://www.w3.org/1999/xlink" width="1920px" height="81px" xmlns="http://www.w3.org/2000/svg">
  <g>
    <path d="M 0 81  L 0 0  L 1920 0  L 1920 81  L 640 81  L 0 81  Z " fill-rule="nonzero" fill="#000000" stroke="none" fill-opacity="0.36078431372549" />
  </g>
</svg>