﻿<?xml version="1.0" encoding="utf-8"?>
<svg version="1.1" xmlns:xlink="http://www.w3.org/1999/xlink" width="1920px" height="1080px" xmlns="http://www.w3.org/2000/svg">
  <g>
    <path d="M 0 0  L 1920 0  L 1920 1080  L 0 1080  L 0 0  " fill-rule="nonzero" fill="#cccccc" stroke="none" />
    <path d="M 76 76  L 1844 76  L 1844 1004  L 76 1004  L 76 76  " fill-rule="nonzero" fill="#ffffff" stroke="none" />
    <path d="M 1079.4 324  C 1034.04 324  998.4 288.36  998.4 243  C 998.4 197.64  1034.04 162  1079.4 162  C 1124.76 162  1160.4 197.64  1160.4 243  C 1160.4 288.36  1124.76 324  1079.4 324  " fill-rule="nonzero" fill="#cccccc" stroke="none" />
    <path d="M 103 977  L 103 496.3  L 531.5 277.8  L 1131.4 682.025  L 1474.2 408.9  L 1817 682.025  L 1817 977  L 103 977  " fill-rule="nonzero" fill="#169bd5" stroke="none" />
  </g>
</svg>