﻿<?xml version="1.0" encoding="utf-8"?>
<svg version="1.1" xmlns:xlink="http://www.w3.org/1999/xlink" width="100px" height="80px" xmlns="http://www.w3.org/2000/svg">
  <g transform="matrix(1 0 0 1 -1796 -1683 )">
    <path d="M 70.3683035714286 35.5681016231475  C 71.0751488095238 34.852975770407  71.4285714285714 34.0061162079511  71.4285714285714 33.0275229357798  C 71.4285714285714 32.0489296636086  71.0751488095238 31.2020701011527  70.3683035714286 30.4869442484121  C 69.6614583333333 29.7718183956716  68.8244047619048 29.4142554693013  67.8571428571429 29.4142554693013  C 61.4583333333333 29.4142554693013  55.5431547619048 30.3458009880028  50.1116071428571 32.2088920254058  C 44.6800595238095 34.0719830628088  39.8530505952381 36.5937426487885  35.6305803571429 39.7741707833451  C 31.4081101190476 42.9545989179017  27.0275297619048 47.0853916725476  22.4888392857143 52.166549047283  C 21.781994047619 52.9569513055752  21.4285714285714 53.8038108680311  21.4285714285714 54.7071277346507  C 21.4285714285714 55.6857210068219  21.781994047619 56.5325805692778  22.4888392857143 57.2477064220183  C 23.1956845238095 57.9628322747589  24.0327380952381 58.3203952011291  25 58.3203952011291  C 25.8928571428571 58.3203952011291  26.7299107142857 57.9628322747589  27.5111607142857 57.2477064220183  C 28.515625 56.3443895553987  29.8921130952381 55.0082333568572  31.640625 53.2392378263938  C 33.3891369047619 51.4702422959304  34.6354166666667 50.2281816043284  35.3794642857143 49.5130557515879  C 40.4761904761905 44.8459186073865  45.4706101190476 41.5337567631146  50.3627232142857 39.576570218772  C 55.2548363095238 37.6193836744295  61.0863095238095 36.6407904022583  67.8571428571429 36.6407904022583  C 68.8244047619048 36.6407904022583  69.6614583333333 36.283227475888  70.3683035714286 35.5681016231475  Z M 99.5535714285714 16.4290755116443  C 99.8511904761905 18.6120912726417  100 20.418725005881  100 21.848976711362  C 100 25.4246059750647  99.6279761904762 29.0566925429311  98.8839285714286 32.7452364149612  C 97.1726190476191 41.1761938367443  93.7406994047619 48.3839096683133  88.5881696428571 54.3683839096683  C 83.4356398809524 60.3528581510233  76.7857142857143 65.3963773229828  68.6383928571429 69.4989414255469  C 60.6770833333333 73.5638673253352  52.5297619047619 75.5963302752294  44.1964285714286 75.5963302752294  C 38.6904761904762 75.5963302752294  33.3705357142857 74.7118325099976  28.2366071428571 72.9428369795342  C 27.6785714285714 72.7546459656551  26.0416666666667 71.964243707363  23.3258928571429 70.5716302046577  C 20.6101190476191 69.1790167019525  18.8244047619048 68.4827099505999  17.96875 68.4827099505999  C 17.3735119047619 68.4827099505999  16.6387648809524 69.0849211950129  15.7645089285714 70.2893436838391  C 14.8902529761905 71.4937661726652  14.0531994047619 72.8111032698189  13.2533482142857 74.2413549752999  C 12.4534970238095 75.671606680781  11.4769345238095 76.9889437779346  10.3236607142857 78.1933662667608  C 9.17038690476191 79.3977887555869  8.05431547619048 80  6.97544642857143 80  C 5.37574404761905 80  4.19456845238095 79.6706657257116  3.43191964285714 79.0119971771348  C 2.66927083333333 78.353328628558  1.82291666666667 77.2335920959774  0.892857142857143 75.6527875793931  C 0.818452380952381 75.5022347682898  0.706845238095238 75.2952246530228  0.558035714285714 75.0317572335921  C 0.409226190476191 74.7682898141614  0.306919642857143 74.5800988002823  0.251116071428571 74.4671841919548  C 0.1953125 74.3542695836274  0.139508928571429 74.1754881204423  0.0837053571428571 73.9308398023994  C 0.0279017857142857 73.6861914843566  0 73.4321336156199  0 73.1686661961891  C 0 71.8513290990355  0.576636904761905 70.4681251470242  1.72991071428571 69.0190543401553  C 2.88318452380952 67.5699835332863  4.14806547619048 66.3373323923783  5.52455357142857 65.3211009174312  C 6.90104166666667 64.3048694424841  8.16592261904762 63.2509997647612  9.31919642857143 62.1594918842625  C 10.4724702380952 61.0679840037638  11.0491071428571 60.1646671371442  11.0491071428571 59.4495412844037  C 11.0491071428571 59.2989884733004  10.7886904761905 58.5838626205599  10.2678571428571 57.3041637261821  C 9.74702380952381 56.0244648318043  9.44940476190476 55.1964243707363  9.375 54.8200423429781  C 9.04017857142857 52.9004940014114  8.87276785714286 50.9433074570689  8.87276785714286 48.9484827099506  C 8.87276785714286 44.6200893907316  9.68191964285714 40.4798870853917  11.3002232142857 36.5278757939308  C 12.9185267857143 32.57586450247  15.132068452381 29.1037402964009  17.9408482142857 26.1115031757234  C 20.7496279761905 23.1192660550459  23.921130952381 20.5034109621266  27.4553571428571 18.2639378969654  C 30.9895833333333 16.0244648318043  34.7842261904762 14.227240649259  38.8392857142857 12.8722653493296  C 40.8854166666667 12.1947776993649  43.5825892857143 11.7148906139732  46.9308035714286 11.4326040931546  C 50.2790178571429 11.1503175723359  53.617931547619 10.9809456598447  56.9475446428571 10.924488355681  C 60.2771577380952 10.8680310515173  63.5974702380952 10.7551164431898  66.9084821428571 10.5857445306987  C 70.2194940476191 10.4163726182075  73.2607886904762 9.96471418489767  76.0323660714286 9.23076923076923  C 78.8039434523809 8.49682427664079  80.9151785714286 7.43354504822394  82.3660714285714 6.0409315455187  L 84.0122767857143 4.37544107268878  C 84.0122767857143 4.37544107268878  84.5610119047619 3.84850623382732  85.6584821428571 2.79463655610445  C 86.7559523809524 1.74076687838156  87.2581845238095 1.36438485062337  87.1651785714286 1.66549047282992  C 87.0721726190476 1.96659609503646  87.7511160714286 1.66549047282992  89.2020089285714 0.762173606210306  C 90.6529017857143 -0.141143260409322  91.4620535714286 -0.225829216654905  91.6294642857143 0.508115737473531  C 93.0803571428571 0.508115737473531  94.3917410714286 1.37379440131733  95.5636160714286 3.10515172900494  C 96.7354910714286 4.83650905669253  97.6190476190476 6.94424841213832  98.2142857142857 9.42836979534227  C 98.8095238095238 11.9124911785462  99.2559523809524 14.2460597506469  99.5535714285714 16.4290755116443  Z " fill-rule="nonzero" fill="#047157" stroke="none" fill-opacity="0.670588235294118" transform="matrix(1 0 0 1 1796 1683 )" />
  </g>
</svg>