﻿<?xml version="1.0" encoding="utf-8"?>
<svg version="1.1" xmlns:xlink="http://www.w3.org/1999/xlink" width="600px" height="400px" xmlns="http://www.w3.org/2000/svg">
  <g transform="matrix(1 0 0 1 -411 -1591 )">
    <path d="M 411 1591  L 1011 1591  L 1011 1991  L 411 1991  L 411 1591  " fill-rule="nonzero" fill="#cccccc" stroke="none" />
    <path d="M 439 1619  L 983 1619  L 983 1963  L 439 1963  L 439 1619  " fill-rule="nonzero" fill="#ffffff" stroke="none" />
    <path d="M 753 1711  C 736.2 1711  723 1697.8  723 1681  C 723 1664.2  736.2 1651  753 1651  C 769.8 1651  783 1664.2  783 1681  C 783 1697.8  769.8 1711  753 1711  " fill-rule="nonzero" fill="#cccccc" stroke="none" />
    <path d="M 449 1953  L 449 1774.8  L 580 1693.8  L 763.4 1823.4  L 868.2 1742.4  L 973 1823.4  L 973 1953  L 449 1953  " fill-rule="nonzero" fill="#169bd5" stroke="none" />
  </g>
</svg>