﻿<?xml version="1.0" encoding="utf-8"?>
<svg version="1.1" xmlns:xlink="http://www.w3.org/1999/xlink" width="150px" height="85px" xmlns="http://www.w3.org/2000/svg">
  <g transform="matrix(1 0 0 1 -106 -393 )">
    <path d="M 106 393  L 256 393  L 256 478  L 106 478  L 106 393  " fill-rule="nonzero" fill="#cccccc" stroke="none" />
    <path d="M 112 399  L 250 399  L 250 472  L 112 472  L 112 399  " fill-rule="nonzero" fill="#ffffff" stroke="none" />
    <path d="M 190.375 418.5  C 186.805 418.5  184 415.695  184 412.125  C 184 408.555  186.805 405.75  190.375 405.75  C 193.945 405.75  196.75 408.555  196.75 412.125  C 196.75 415.695  193.945 418.5  190.375 418.5  " fill-rule="nonzero" fill="#cccccc" stroke="none" />
    <path d="M 114 470  L 114 432.05  L 147.5 414.8  L 194.4 446.54  L 221.2 425.15  L 248 446.54  L 248 470  L 114 470  " fill-rule="nonzero" fill="#169bd5" stroke="none" />
  </g>
</svg>